{
  "name": "Abstraction",
  "maxPages": "2",
  "pages": [
    {
      "id": 1,
      "paragraphs": [
        {
          "number": 1,
          "description": "Abstraction is one of the most important concepts in programming and OOP. It allows us to write code, which works with abstract data structures (like dictionaries, lists, arrays and others). We can work with an abstract data type by using its interface without concerning ourselves with its implementation. For instance, we can save to a file all elements from a list without bothering if it is implemented with an array, a linked list, etc. "
        },
        {
          "number": 2,
          "description": "The code remains unchanged, when we work with other data types. We can even write new data types (we will discuss this later) and make them work with our program without changing it."
        }
      ]
    },
    {
      "id": 2,
      "paragraphs": [
        {
          "number": 1,
          "description": "Abstraction allows us to do something very important – define an interface for our applications, i.e. to define all tasks the program is capable to execute and their respective input and output data. That way we can make a couple of small programs, each handling a smaller task. When we combine this with the ability to work with abstract data, we achieve great flexibility in integrating these small programs and much more opportunities for code reuse."
        },
        {
          "number": 2,
          "description": " These small subprograms are referred to as components. This approach for writing programs is widely adopted since it allows us to reuse not only objects, but entire subprograms as well."
        }
      ]
    }

  ]
}